!> System and grid setup
MaxDimension = 1
BoundaryCondition = 1 1 1
Nr = 30 5 15   
Nk = 140 1 30
NumberOfState =  2   !InputNState
N_Stencil = 5
RealSpaceShift = 0.0 0.0 0.0

!> GS setup
GroundSolveMethod = 1
GroundSolveState = 20


!> TD setup
TimePropagationMethod = 0
LaserChoice = 1                        ! 1 for cos^4 envelope field; 2 for cos^4 envelope field + shift field
Nt = 400000
TD_ExpOrder = 4
TD_PropagationTime = 100                   !fs
TD_PulseTime = 96.0664594176350874         !fs
TD_PulseCenter = 48.0332297088175437       !fs
Wavelength = 3200.0                      !nm
E0 = 0.087 0.0 0.0                     !Volt/Angstrom  0.165 0.1373199 0.1165255
EvaluationInterval = 10   !5
N_HHG = 5000
HHG_EnergyRange = 0.0 120.0              !eV
ShiftFieldAmplitudeRelativeFactor = 0  ! shift e-field amplitude in percentage of the main oscilating e-field amplitude

!> Band projection
NumberOfBandForProjection = 20
SolveMethodForBandProjection = 1

!> Band cut setup
BandCutN = 30
BandCutStartPoint = 0.0 0 0
BandCutEndPoint = 0.5 0 0

!> External(only crystal part) potential setup
ExternalPotentialChoice = 3
ExternalPotentialNumberOfSuperLattice = 1
ImpurityRelativeStrength = 0.0
BoxAxisLength = 8 8 8
ExternalPotentialHeight = 0.37 0.37 0.37
ExternalPotentialFourierMax = 1
ExternalPotentialFourierCompX = 1 0.5 0 0 0 0 0 0 0 0 0
ExternalPotentialFourierCompY = 1 0.5 0 0 0 0 0 0 0 0 0
ExternalPotentialFourierCompZ = 1 0.5 0 0 0 0 0 0 0 0 0

